INDEX VERSION 1.131+C:\Users\mussa\Courses\Java310\Project2\mussa_plante_project2\.metadata\.plugins\org.eclipse.jdt.core
1390585404.index
2294426156.index
3664795560.index
1901310798.index
1780586484.index
1937661125.index
3389193297.index
3885806594.index
2975823286.index
